Plate,Cluster_1,Cluster_2,Cluster_3,Cluster_4,Cluster_5
Plate01,1 (1.35 %),0 (0.0 %),12 (16.22 %),5 (6.76 %),56 (75.68 %)
Plate02,9 (11.25 %),3 (3.75 %),18 (22.5 %),3 (3.75 %),47 (58.75 %)
Plate03,15 (20 %),5 (6.67 %),29 (38.67 %),2 (2.67 %),24 (32 %)
Plate04,8 (11.59 %),6 (8.7 %),29 (42.03 %),3 (4.35 %),23 (33.33 %)
Plate05A,11 (15.49 %),6 (8.45 %),34 (47.89 %),4 (5.63 %),16 (22.54 %)
Plate05B,12 (16.9 %),8 (11.27 %),33 (46.48 %),3 (4.23 %),15 (21.13 %)
Plate06A,0 (0.0 %),1 (1.75 %),0 (0.0 %),56 (98.25 %),0 (0.0 %)
Plate06B,0 (0.0 %),1 (1.72 %),0 (0.0 %),57 (98.28 %),0 (0.0 %)
Plate07,39 (45.35 %),46 (53.49 %),0 (0.0 %),0 (0.0 %),1 (1.16 %)
Plate08,25 (39.68 %),13 (20.63 %),16 (25.4 %),3 (4.76 %),6 (9.52 %)
Plate09,6 (8.7 %),0 (0.0 %),2 (2.9 %),1 (1.45 %),60 (86.96 %)
Plate10,25 (36.76 %),1 (1.47 %),19 (27.94 %),0 (0.0 %),23 (33.82 %)
